<?xml version="1.0" encoding="UTF-8"?>
<svg height="128px" viewBox="0 0 128 128" width="128px" xmlns="http://www.w3.org/2000/svg" xmlns:xlink="http://www.w3.org/1999/xlink">
    <filter id="a" height="100%" width="100%" x="0%" y="0%">
        <feColorMatrix color-interpolation-filters="sRGB" values="0 0 0 0 1 0 0 0 0 1 0 0 0 0 1 0 0 0 1 0"/>
    </filter>
    <linearGradient id="b" gradientTransform="matrix(1 0 0 0.95454 0 -158.907494)" gradientUnits="userSpaceOnUse" x1="-0" x2="127.999977" y1="288" y2="288">
        <stop offset="0" stop-color="#983600"/>
        <stop offset="0.0625" stop-color="#f26219"/>
        <stop offset="0.312119" stop-color="#c64600"/>
        <stop offset="0.688295" stop-color="#c64600"/>
        <stop offset="0.937501" stop-color="#f26219"/>
        <stop offset="1" stop-color="#983600"/>
    </linearGradient>
    <linearGradient id="c" gradientUnits="userSpaceOnUse" x1="54" x2="122" y1="70" y2="70">
        <stop offset="0" stop-color="#c3c2bc"/>
        <stop offset="0.639093" stop-color="#ececec"/>
        <stop offset="1" stop-color="#c7c6c2"/>
    </linearGradient>
    <clipPath id="d">
        <rect height="128" width="128"/>
    </clipPath>
    <clipPath id="e">
        <rect height="128" width="128"/>
    </clipPath>
    <mask id="f">
        <g filter="url(#a)">
            <g clip-path="url(#e)" filter="url(#a)">
                <g clip-path="url(#d)">
                    <path d="m 40 32 h 48 c 22.089844 0 40 17.910156 40 40 v 4 c 0 22.089844 -17.910156 40 -40 40 h -48 c -22.089844 0 -40 -17.910156 -40 -40 v -4 c 0 -22.089844 17.910156 -40 40 -40 z m 0 0" fill="url(#b)"/>
                    <path d="m 40 32 h 48 c 22.089844 0 40 17.910156 40 40 c 0 22.09375 -17.910156 40 -40 40 h -48 c -22.089844 0 -40 -17.90625 -40 -40 c 0 -22.089844 17.910156 -40 40 -40 z m 0 0" fill="#ff7800"/>
                    <path d="m 88 34 c 18.777344 0 34 15.222656 34 34 v 4 c 0 18.777344 -15.222656 34 -34 34 s -34 -15.222656 -34 -34 v -4 c 0 -18.777344 15.222656 -34 34 -34 z m 0 0" fill="url(#c)"/>
                    <path d="m 122 68 c 0 18.777344 -15.222656 34 -34 34 s -34 -15.222656 -34 -34 s 15.222656 -34 34 -34 s 34 15.222656 34 34 z m 0 0" fill="#ffffff"/>
                </g>
            </g>
        </g>
    </mask>
    <mask id="g">
        <g filter="url(#a)">
            <rect fill-opacity="0.8" height="184.32" width="184.32" x="-28.16" y="-28.16"/>
        </g>
    </mask>
    <linearGradient id="h" gradientTransform="matrix(0 0.37 -0.98462 0 295.38501 -30.360001)" gradientUnits="userSpaceOnUse" x1="300" x2="428" y1="235" y2="235">
        <stop offset="0" stop-color="#f9f06b"/>
        <stop offset="1" stop-color="#f5c211"/>
    </linearGradient>
    <clipPath id="i">
        <rect height="128" width="128"/>
    </clipPath>
    <clipPath id="j">
        <rect height="128" width="128"/>
    </clipPath>
    <path d="m 40 32 h 48 c 22.089844 0 40 17.910156 40 40 v 4 c 0 22.089844 -17.910156 40 -40 40 h -48 c -22.089844 0 -40 -17.910156 -40 -40 v -4 c 0 -22.089844 17.910156 -40 40 -40 z m 0 0" fill="url(#b)"/>
    <path d="m 40 32 h 48 c 22.089844 0 40 17.910156 40 40 c 0 22.09375 -17.910156 40 -40 40 h -48 c -22.089844 0 -40 -17.90625 -40 -40 c 0 -22.089844 17.910156 -40 40 -40 z m 0 0" fill="#ff7800"/>
    <path d="m 88 34 c 18.777344 0 34 15.222656 34 34 v 4 c 0 18.777344 -15.222656 34 -34 34 s -34 -15.222656 -34 -34 v -4 c 0 -18.777344 15.222656 -34 34 -34 z m 0 0" fill="url(#c)"/>
    <path d="m 122 68 c 0 18.777344 -15.222656 34 -34 34 s -34 -15.222656 -34 -34 s 15.222656 -34 34 -34 s 34 15.222656 34 34 z m 0 0" fill="#ffffff"/>
    <g mask="url(#f)">
        <g clip-path="url(#j)">
            <g mask="url(#g)">
                <g clip-path="url(#i)">
                    <path d="m 128 80.640625 v 47.359375 h -128 v -47.359375 z m 0 0" fill="url(#h)"/>
                    <path d="m 13.308594 80.640625 l 47.355468 47.359375 h 21.214844 l -47.359375 -47.359375 z m 42.421875 0 l 47.363281 47.359375 h 21.214844 l -47.363282 -47.359375 z m 42.429687 0 l 29.839844 29.839844 v -21.210938 l -8.628906 -8.628906 z m -98.160156 7.90625 v 21.214844 l 18.238281 18.238281 h 21.214844 z m 0 0"/>
                </g>
            </g>
        </g>
    </g>
</svg>
